Tile 2311:
..##.#..#.
##..#.....
#...##..#.
####.#...#
##.##.###.
##...#.###
.#.#.#..##
..#....#..
###...#.#.
..###..###

Tile 1951:
#.##...##.
#.####...#
.....#..##
#...######
.##.#....#
.###.#####
###.##.##.
.###....#.
..#.#..#.#
#...##.#..

Tile 1427:
###.##.#..
.#..#.##..
.#.##.#..#
#.#.#.##.#
....#...##
...##..##.
...#.#####
.#.####.#.
..#..###.#
..##.#..#.

Tile 2729:
...#.#.#.#
####.#....
..#.#.....
....#..#.#
.##..##.#.
.#.####...
####.#.#..
##.####...
##..#.##..
#.##...##.

Tile 1171:
####...##.
#..##.#..#
##.#..#.#.
.###.####.
..###.####
.##....##.
.#...####.
#.##.####.
####..#...
.....##...

Tile 1489:
##.#.#....
..##...#..
.##..##...
..#...#...
#####...#.
#..#.#.#.#
...#.#.#..
##.#...##.
..##.##.##
###.##.#..

Tile 2473:
#....####.
#..#.##...
#.##..#...
######.#.#
.#...#.#.#
.#########
.###.#..#.
########.#
##...##.#.
..###.#.#.

Tile 2971:
..#.#....#
#...###...
#.#.###...
##.##..#..
.#####..##
.#..####.#
#..#.#..#.
..####.###
..#.#.###.
...#.#.#.#

Tile 3079:
#.#.#####.
.#..######
..#.......
######....
####.#..#.
.#...#.##.
#.#####.##
..#.###...
..#.......
..#.###...
